{
  "v": "4.8.0",
  "meta": { "g": "LottieFiles AE ", "a": "", "k": "", "d": "", "tc": "" },
  "fr": 60,
  "ip": 0,
  "op": 96,
  "w": 256,
  "h": 256,
  "nm": "Lock Animation",
  "ddd": 0,
  "assets": [],
  "layers": [
    {
      "ddd": 0,
      "ind": 1,
      "ty": 3,
      "nm": "▽ Group 326",
      "sr": 1,
      "ks": {
        "o": { "a": 0, "k": 100, "ix": 11 },
        "r": { "a": 0, "k": 0, "ix": 10 },
        "p": { "a": 0, "k": [128, 128, 0], "ix": 2 },
        "a": { "a": 0, "k": [128, 128, 0], "ix": 1 },
        "s": { "a": 0, "k": [100, 100, 100], "ix": 6 }
      },
      "ao": 0,
      "ip": 0,
      "op": 420,
      "st": 0,
      "bm": 0
    },
    {
      "ddd": 0,
      "ind": 2,
      "ty": 3,
      "nm": "▽ Group 228",
      "parent": 1,
      "sr": 1,
      "ks": {
        "o": { "a": 0, "k": 100, "ix": 11 },
        "r": { "a": 0, "k": 0, "ix": 10 },
        "p": { "a": 0, "k": [128, 128, 0], "ix": 2 },
        "a": { "a": 0, "k": [96, 96, 0], "ix": 1 },
        "s": { "a": 0, "k": [100, 100, 100], "ix": 6 }
      },
      "ao": 0,
      "ip": 0,
      "op": 420,
      "st": 0,
      "bm": 0
    },
    {
      "ddd": 0,
      "ind": 3,
      "ty": 4,
      "nm": "Vector 186 (Stroke)",
      "parent": 2,
      "sr": 1,
      "ks": {
        "o": { "a": 0, "k": 100, "ix": 11 },
        "r": {
          "a": 1,
          "k": [
            { "i": { "x": [0.667], "y": [1] }, "o": { "x": [0.333], "y": [0] }, "t": 0, "s": [0] },
            { "i": { "x": [0.667], "y": [1] }, "o": { "x": [0.333], "y": [0] }, "t": 3, "s": [-2.013] },
            { "i": { "x": [0.667], "y": [1] }, "o": { "x": [0.333], "y": [0] }, "t": 30, "s": [2.54] },
            { "i": { "x": [0.667], "y": [1] }, "o": { "x": [0.333], "y": [0] }, "t": 54, "s": [-2.789] },
            { "t": 61, "s": [0] }
          ],
          "ix": 10
        },
        "p": { "a": 0, "k": [96, 133.333, 0], "ix": 2 },
        "a": { "a": 0, "k": [0, 0, 0], "ix": 1 },
        "s": { "a": 0, "k": [100, 100, 100], "ix": 6 }
      },
      "ao": 0,
      "shapes": [
        {
          "ty": "gr",
          "it": [
            {
              "ind": 0,
              "ty": "sh",
              "ix": 1,
              "ks": {
                "a": 0,
                "k": {
                  "i": [
                    [1.202, 0],
                    [0, 0],
                    [0.789, -0.054],
                    [0.68, -0.281],
                    [0.677, -1.634],
                    [0.055, -0.812],
                    [0, -1.202],
                    [0, 0],
                    [-0.054, -0.789],
                    [-0.281, -0.68],
                    [-1.634, -0.677],
                    [-0.812, -0.055],
                    [-1.202, 0],
                    [0, 0],
                    [-0.789, 0.054],
                    [-0.68, 0.281],
                    [-0.677, 1.634],
                    [-0.055, 0.812],
                    [0, 1.202],
                    [0, 0],
                    [0.054, 0.789],
                    [0.281, 0.68],
                    [1.634, 0.677],
                    [0.812, 0.055]
                  ],
                  "o": [
                    [0, 0],
                    [-1.202, 0],
                    [-0.812, 0.055],
                    [-1.634, 0.677],
                    [-0.281, 0.68],
                    [-0.054, 0.789],
                    [0, 0],
                    [0, 1.202],
                    [0.055, 0.812],
                    [0.677, 1.634],
                    [0.68, 0.281],
                    [0.789, 0.054],
                    [0, 0],
                    [1.202, 0],
                    [0.812, -0.055],
                    [1.634, -0.677],
                    [0.281, -0.68],
                    [0.054, -0.789],
                    [0, 0],
                    [0, -1.202],
                    [-0.055, -0.812],
                    [-0.677, -1.634],
                    [-0.68, -0.281],
                    [-0.789, -0.054]
                  ],
                  "v": [
                    [14.714, -14.667],
                    [-14.714, -14.667],
                    [-17.676, -14.613],
                    [-19.885, -14.159],
                    [-23.493, -10.551],
                    [-23.946, -8.342],
                    [-24, -5.381],
                    [-24, 5.381],
                    [-23.946, 8.342],
                    [-23.493, 10.551],
                    [-19.885, 14.159],
                    [-17.676, 14.613],
                    [-14.714, 14.667],
                    [14.714, 14.667],
                    [17.676, 14.613],
                    [19.885, 14.159],
                    [23.493, 10.551],
                    [23.946, 8.342],
                    [24, 5.381],
                    [24, -5.381],
                    [23.946, -8.342],
                    [23.493, -10.551],
                    [19.885, -14.159],
                    [17.676, -14.613]
                  ],
                  "c": true
                },
                "ix": 2
              },
              "nm": "Path 1",
              "mn": "ADBE Vector Shape - Group",
              "hd": false
            },
            {
              "ind": 1,
              "ty": "sh",
              "ix": 2,
              "ks": {
                "a": 0,
                "k": {
                  "i": [
                    [-0.98, 0.406],
                    [-0.676, 0.046],
                    [-1.261, 0],
                    [0, 0],
                    [-0.688, -0.047],
                    [-0.301, -0.124],
                    [-0.406, -0.98],
                    [-0.046, -0.676],
                    [0, -1.261],
                    [0, 0],
                    [0.047, -0.688],
                    [0.124, -0.301],
                    [0.98, -0.406],
                    [0.676, -0.046],
                    [1.261, 0],
                    [0, 0],
                    [0.688, 0.047],
                    [0.301, 0.124],
                    [0.406, 0.98],
                    [0.046, 0.676],
                    [0, 1.261],
                    [0, 0],
                    [-0.047, 0.688],
                    [-0.124, 0.301]
                  ],
                  "o": [
                    [0.301, -0.124],
                    [0.688, -0.047],
                    [0, 0],
                    [1.261, 0],
                    [0.676, 0.046],
                    [0.98, 0.406],
                    [0.124, 0.301],
                    [0.047, 0.688],
                    [0, 0],
                    [0, 1.261],
                    [-0.046, 0.676],
                    [-0.406, 0.98],
                    [-0.301, 0.124],
                    [-0.688, 0.047],
                    [0, 0],
                    [-1.261, 0],
                    [-0.676, -0.046],
                    [-0.98, -0.406],
                    [-0.124, -0.301],
                    [-0.047, -0.688],
                    [0, 0],
                    [0, -1.261],
                    [0.046, -0.676],
                    [0.406, -0.98]
                  ],
                  "v": [
                    [-18.864, -11.696],
                    [-17.494, -11.952],
                    [-14.667, -12],
                    [14.667, -12],
                    [17.494, -11.952],
                    [18.864, -11.696],
                    [21.029, -9.531],
                    [21.286, -8.161],
                    [21.333, -5.333],
                    [21.333, 5.333],
                    [21.286, 8.161],
                    [21.029, 9.531],
                    [18.864, 11.696],
                    [17.494, 11.952],
                    [14.667, 12],
                    [-14.667, 12],
                    [-17.494, 11.952],
                    [-18.864, 11.696],
                    [-21.029, 9.531],
                    [-21.286, 8.161],
                    [-21.333, 5.333],
                    [-21.333, -5.333],
                    [-21.286, -8.161],
                    [-21.029, -9.531]
                  ],
                  "c": true
                },
                "ix": 2
              },
              "nm": "Path 2",
              "mn": "ADBE Vector Shape - Group",
              "hd": false
            },
            { "ty": "mm", "mm": 1, "nm": "Merge Paths 1", "mn": "ADBE Vector Filter - Merge", "hd": false },
            {
              "ty": "fl",
              "c": { "a": 0, "k": [0.168627455831, 0.192156866193, 0.317647069693, 1], "ix": 4 },
              "o": { "a": 0, "k": 100, "ix": 5 },
              "r": 1,
              "bm": 0,
              "nm": "Fill 1",
              "mn": "ADBE Vector Graphic - Fill",
              "hd": false
            },
            {
              "ty": "tr",
              "p": { "a": 0, "k": [0, 0], "ix": 2 },
              "a": { "a": 0, "k": [0, 0], "ix": 1 },
              "s": { "a": 0, "k": [400, 400], "ix": 3 },
              "r": { "a": 0, "k": 0, "ix": 6 },
              "o": { "a": 0, "k": 100, "ix": 7 },
              "sk": { "a": 0, "k": 0, "ix": 4 },
              "sa": { "a": 0, "k": 0, "ix": 5 },
              "nm": "Transform"
            }
          ],
          "nm": "Vector 186 (Stroke)",
          "np": 4,
          "cix": 2,
          "bm": 0,
          "ix": 1,
          "mn": "ADBE Vector Group",
          "hd": false
        }
      ],
      "ip": 0,
      "op": 420,
      "st": 0,
      "bm": 0
    },
    {
      "ddd": 0,
      "ind": 4,
      "ty": 4,
      "nm": "Vector 188 (Stroke)",
      "parent": 2,
      "sr": 1,
      "ks": {
        "o": { "a": 0, "k": 100, "ix": 11 },
        "r": {
          "a": 1,
          "k": [
            { "i": { "x": [0.667], "y": [1] }, "o": { "x": [0.333], "y": [0] }, "t": 0, "s": [0] },
            { "i": { "x": [0.667], "y": [1] }, "o": { "x": [0.333], "y": [0] }, "t": 3, "s": [-2.013] },
            { "i": { "x": [0.667], "y": [1] }, "o": { "x": [0.333], "y": [0] }, "t": 30, "s": [9.337] },
            { "i": { "x": [0.667], "y": [1] }, "o": { "x": [0.333], "y": [0] }, "t": 54, "s": [-2.91] },
            { "t": 61, "s": [0] }
          ],
          "ix": 10
        },
        "p": { "a": 0, "k": [96, 133.333, 0], "ix": 2 },
        "a": { "a": 0, "k": [0, 0, 0], "ix": 1 },
        "s": { "a": 0, "k": [100, 100, 100], "ix": 6 }
      },
      "ao": 0,
      "shapes": [
        {
          "ty": "gr",
          "it": [
            {
              "ind": 0,
              "ty": "sh",
              "ix": 1,
              "ks": {
                "a": 0,
                "k": {
                  "i": [
                    [0, 0],
                    [0.736, 0],
                    [0, -0.736],
                    [0, 0],
                    [-0.736, 0],
                    [0, 0.736]
                  ],
                  "o": [
                    [0, -0.736],
                    [-0.736, 0],
                    [0, 0],
                    [0, 0.736],
                    [0.736, 0],
                    [0, 0]
                  ],
                  "v": [
                    [1.333, -2.667],
                    [0, -4],
                    [-1.333, -2.667],
                    [-1.333, 2.667],
                    [0, 4],
                    [1.333, 2.667]
                  ],
                  "c": true
                },
                "ix": 2
              },
              "nm": "Path 1",
              "mn": "ADBE Vector Shape - Group",
              "hd": false
            },
            {
              "ty": "fl",
              "c": { "a": 0, "k": [0.168627455831, 0.192156866193, 0.317647069693, 1], "ix": 4 },
              "o": { "a": 0, "k": 100, "ix": 5 },
              "r": 1,
              "bm": 0,
              "nm": "Fill 1",
              "mn": "ADBE Vector Graphic - Fill",
              "hd": false
            },
            {
              "ty": "tr",
              "p": { "a": 0, "k": [0, 0], "ix": 2 },
              "a": { "a": 0, "k": [0, 0], "ix": 1 },
              "s": { "a": 0, "k": [400, 400], "ix": 3 },
              "r": { "a": 0, "k": 0, "ix": 6 },
              "o": { "a": 0, "k": 100, "ix": 7 },
              "sk": { "a": 0, "k": 0, "ix": 4 },
              "sa": { "a": 0, "k": 0, "ix": 5 },
              "nm": "Transform"
            }
          ],
          "nm": "Vector 188 (Stroke)",
          "np": 2,
          "cix": 2,
          "bm": 0,
          "ix": 1,
          "mn": "ADBE Vector Group",
          "hd": false
        }
      ],
      "ip": 0,
      "op": 420,
      "st": 0,
      "bm": 0
    },
    {
      "ddd": 0,
      "ind": 5,
      "ty": 4,
      "nm": "Vector 187 (Stroke)",
      "parent": 2,
      "sr": 1,
      "ks": {
        "o": { "a": 0, "k": 100, "ix": 11 },
        "r": {
          "a": 1,
          "k": [
            { "i": { "x": [0.667], "y": [1] }, "o": { "x": [0.333], "y": [0] }, "t": 0, "s": [0] },
            { "i": { "x": [0.667], "y": [1] }, "o": { "x": [0.333], "y": [0] }, "t": 3, "s": [-2.013] },
            { "i": { "x": [0.667], "y": [1] }, "o": { "x": [0.333], "y": [0] }, "t": 30, "s": [30.189] },
            { "i": { "x": [0.667], "y": [1] }, "o": { "x": [0.333], "y": [0] }, "t": 41, "s": [30.492] },
            { "i": { "x": [0.667], "y": [1] }, "o": { "x": [0.333], "y": [0] }, "t": 49, "s": [-2.91] },
            { "i": { "x": [0.667], "y": [1] }, "o": { "x": [0.333], "y": [0] }, "t": 51, "s": [2.332] },
            { "t": 61, "s": [0] }
          ],
          "ix": 10,
          "x": "var $bm_rt;\nvar n, n, t, t, v, amp, freq, decay;\n$bm_rt = n = 0;\nif (numKeys > 0) {\n    $bm_rt = n = nearestKey(time).index;\n    if (key(n).time > time) {\n        n--;\n    }\n}\nif (n == 0) {\n    $bm_rt = t = 0;\n} else {\n    $bm_rt = t = $bm_sub(time, key(n).time);\n}\nif (n > 0 && t < 1) {\n    v = velocityAtTime($bm_sub(key(n).time, $bm_div(thisComp.frameDuration, 10)));\n    amp = 0.05;\n    freq = 4;\n    decay = 8;\n    $bm_rt = $bm_sum(value, $bm_div($bm_mul($bm_mul(v, amp), Math.sin($bm_mul($bm_mul($bm_mul(freq, t), 2), Math.PI))), Math.exp($bm_mul(decay, t))));\n} else {\n    $bm_rt = value;\n}"
        },
        "p": { "a": 0, "k": [152.001, 82.624, 0], "ix": 2 },
        "a": { "a": 0, "k": [58.667, 42.502, 0], "ix": 1 },
        "s": { "a": 0, "k": [100, 100, 100], "ix": 6 }
      },
      "ao": 0,
      "shapes": [
        {
          "ty": "gr",
          "it": [
            {
              "ind": 0,
              "ty": "sh",
              "ix": 1,
              "ks": {
                "a": 0,
                "k": {
                  "i": [
                    [0, 0],
                    [-6.627, 0],
                    [0, -6.627],
                    [0, 0],
                    [-0.736, 0],
                    [0, 0.736],
                    [0, 0],
                    [8.1, 0],
                    [0, -8.1],
                    [0, 0],
                    [-0.736, 0],
                    [0, 0.736]
                  ],
                  "o": [
                    [0, -6.627],
                    [6.627, 0],
                    [0, 0],
                    [0, 0.736],
                    [0.736, 0],
                    [0, 0],
                    [0, -8.1],
                    [-8.1, 0],
                    [0, 0],
                    [0, 0.736],
                    [0.736, 0],
                    [0, 0]
                  ],
                  "v": [
                    [-12, 4],
                    [0, -8],
                    [12, 4],
                    [12, 9.333],
                    [13.333, 10.667],
                    [14.667, 9.333],
                    [14.667, 4],
                    [0, -10.667],
                    [-14.667, 4],
                    [-14.667, 9.333],
                    [-13.333, 10.667],
                    [-12, 9.333]
                  ],
                  "c": true
                },
                "ix": 2
              },
              "nm": "Path 1",
              "mn": "ADBE Vector Shape - Group",
              "hd": false
            },
            {
              "ty": "fl",
              "c": { "a": 0, "k": [0.168627455831, 0.192156866193, 0.317647069693, 1], "ix": 4 },
              "o": { "a": 0, "k": 100, "ix": 5 },
              "r": 1,
              "bm": 0,
              "nm": "Fill 1",
              "mn": "ADBE Vector Graphic - Fill",
              "hd": false
            },
            {
              "ty": "tr",
              "p": { "a": 0, "k": [0, 0], "ix": 2 },
              "a": { "a": 0, "k": [0, 0], "ix": 1 },
              "s": { "a": 0, "k": [400, 400], "ix": 3 },
              "r": { "a": 0, "k": 0, "ix": 6 },
              "o": { "a": 0, "k": 100, "ix": 7 },
              "sk": { "a": 0, "k": 0, "ix": 4 },
              "sa": { "a": 0, "k": 0, "ix": 5 },
              "nm": "Transform"
            }
          ],
          "nm": "Vector 187 (Stroke)",
          "np": 2,
          "cix": 2,
          "bm": 0,
          "ix": 1,
          "mn": "ADBE Vector Group",
          "hd": false
        }
      ],
      "ip": 0,
      "op": 420,
      "st": 0,
      "bm": 0
    },
    {
      "ddd": 0,
      "ind": 6,
      "ty": 4,
      "nm": "Rectangle 146",
      "parent": 1,
      "sr": 1,
      "ks": {
        "o": { "a": 0, "k": 100, "ix": 11 },
        "r": { "a": 0, "k": 0, "ix": 10 },
        "p": { "a": 0, "k": [128, 128, 0], "ix": 2 },
        "a": { "a": 0, "k": [0, 0, 0], "ix": 1 },
        "s": { "a": 0, "k": [100, 100, 100], "ix": 6 }
      },
      "ao": 0,
      "shapes": [
        {
          "ty": "gr",
          "it": [
            {
              "ty": "rc",
              "d": 1,
              "s": { "a": 0, "k": [64, 64], "ix": 2 },
              "p": { "a": 0, "k": [0, 0], "ix": 3 },
              "r": { "a": 0, "k": 0, "ix": 4 },
              "nm": "Rectangle Path 1",
              "mn": "ADBE Vector Shape - Rect",
              "hd": false
            },
            {
              "ty": "tr",
              "p": { "a": 0, "k": [0, 0], "ix": 2 },
              "a": { "a": 0, "k": [0, 0], "ix": 1 },
              "s": { "a": 0, "k": [400, 400], "ix": 3 },
              "r": { "a": 0, "k": 0, "ix": 6 },
              "o": { "a": 0, "k": 100, "ix": 7 },
              "sk": { "a": 0, "k": 0, "ix": 4 },
              "sa": { "a": 0, "k": 0, "ix": 5 },
              "nm": "Transform"
            }
          ],
          "nm": "Rectangle 146",
          "np": 1,
          "cix": 2,
          "bm": 0,
          "ix": 1,
          "mn": "ADBE Vector Group",
          "hd": false
        }
      ],
      "ip": 0,
      "op": 420,
      "st": 0,
      "bm": 0
    }
  ],
  "markers": []
}
